<?xml version="1.0" standalone="no"?>
<!DOCTYPE svg PUBLIC "-//W3C//DTD SVG 1.1//EN" "http://www.w3.org/Graphics/SVG/1.1/DTD/svg11.dtd" >
<svg xmlns="http://www.w3.org/2000/svg">
<metadata>Generated by IcoMoon</metadata>
<defs>
<font id="DFPanoram" horiz-adv-x="1024">
<font-face units-per-em="1024" ascent="960" descent="-64" />
<missing-glyph horiz-adv-x="1024" />
<glyph unicode="&#x20;" horiz-adv-x="512" d="" />
<glyph unicode="&#xe019;" glyph-name="pause_circle_filled" d="M640 256.667v340h-86v-340h86zM470 256.667v340h-86v-340h86zM512 852.667q176 0 301-125t125-301-125-301-301-125-301 125-125 301 125 301 301 125z" />
<glyph unicode="&#xe01c;" glyph-name="play_circle_filled" d="M426 234.667l256 192-256 192v-384zM512 852.667q176 0 301-125t125-301-125-301-301-125-301 125-125 301 125 301 301 125z" />
<glyph unicode="&#xe171;" glyph-name="filter_center_focus" d="M512 554.667q52 0 90-38t38-90-38-90-90-38-90 38-38 90 38 90 90 38zM810 128.667v170h86v-170q0-34-26-60t-60-26h-170v86h170zM810 810.667q34 0 60-26t26-60v-170h-86v170h-170v86h170zM214 724.667v-170h-86v170q0 34 26 60t60 26h170v-86h-170zM214 298.667v-170h170v-86h-170q-34 0-60 26t-26 60v170h86z" />
<glyph unicode="&#xe178;" glyph-name="flare" d="M470-43.333v256h84v-256h-84zM240 214.667l92 92 60-60-92-92zM632 246.667l60 60 92-92-60-60zM512 554.667q52 0 90-38t38-90-38-90-90-38-90 38-38 90 38 90 90 38zM726 468.667h256v-84h-256v84zM784 638.667l-92-92-60 60 92 92zM554 896.667v-256h-84v256h84zM392 606.667l-60-60-92 92 60 60zM298 468.667v-84h-256v84h256z" />
<glyph unicode="&#xf08b;" glyph-name="sign-out" horiz-adv-x="951" d="M365.714 128q0-2.286 0.571-11.429t0.286-15.143-1.714-13.429-5.714-11.143-11.714-3.714h-182.857q-68 0-116.286 48.286t-48.286 116.286v402.286q0 68 48.286 116.286t116.286 48.286h182.857q7.429 0 12.857-5.429t5.429-12.857q0-2.286 0.571-11.429t0.286-15.143-1.714-13.429-5.714-11.143-11.714-3.714h-182.857q-37.714 0-64.571-26.857t-26.857-64.571v-402.286q0-37.714 26.857-64.571t64.571-26.857h178.286t6.571-0.571 6.571-1.714 4.571-3.143 4-5.143 1.143-7.714zM896 438.857q0-14.857-10.857-25.714l-310.857-310.857q-10.857-10.857-25.714-10.857t-25.714 10.857-10.857 25.714v164.571h-256q-14.857 0-25.714 10.857t-10.857 25.714v219.429q0 14.857 10.857 25.714t25.714 10.857h256v164.571q0 14.857 10.857 25.714t25.714 10.857 25.714-10.857l310.857-310.857q10.857-10.857 10.857-25.714z" />
</font></defs></svg>